-------------------------------------------------------------------------------
Test set: MailMeta
-------------------------------------------------------------------------------
Tests run: 3, Failures: 0, Errors: 0, Skipped: 0, Time elapsed: 49.706 s - in MailMeta
